<svg width="49" height="27" viewBox="0 0 49 27" fill="none" xmlns="http://www.w3.org/2000/svg">
<path d="M35 13V6H44L48 13M35 13H48M35 13V19H17M48 13V23M37 23H3V19H7" stroke="#17181A" stroke-width="2"/>
<path d="M18 23H49" stroke="#17181A" stroke-width="2"/>
<circle r="3" transform="matrix(-1 0 0 1 41 23)" fill="white" stroke="#17181A" stroke-width="2"/>
<circle r="3" transform="matrix(-1 0 0 1 12 23)" fill="white" stroke="#17181A" stroke-width="2"/>
<rect x="1" y="4" width="31" height="12" rx="6" stroke="#17181A" stroke-width="2"/>
<path d="M12 4V1H20V4" stroke="#17181A" stroke-width="2"/>
</svg>
