<svg width="46" height="27" viewBox="0 0 46 27" fill="none" xmlns="http://www.w3.org/2000/svg">
<path d="M10 23H36V19" stroke="#17181A" stroke-width="2"/>
<circle r="3" transform="matrix(-1 0 0 1 16 23)" fill="white" stroke="#17181A" stroke-width="2"/>
<circle r="3" transform="matrix(-1 0 0 1 25 23)" fill="white" stroke="#17181A" stroke-width="2"/>
<circle r="3" transform="matrix(-1 0 0 1 7 23)" fill="white" stroke="#17181A" stroke-width="2"/>
<rect x="1" y="4" width="44" height="13" rx="6.5" stroke="#17181A" stroke-width="2"/>
<path d="M9 4V1H17V4" stroke="#17181A" stroke-width="2"/>
</svg>
