<svg width="56" height="75" viewBox="0 0 56 75" fill="none" xmlns="http://www.w3.org/2000/svg">
<path d="M13.3761 34.9009C13.717 36.4026 14.2396 37.7294 15.4012 38.6192C15.8249 39.004 16.1995 39.4405 16.5165 39.9185C16.8639 40.4658 17.1177 41.0682 17.2671 41.7003C17.4726 43.0248 17.9049 43.7122 18.9062 44.475C19.6117 45.0618 20.4502 45.5443 21.3196 46.9706C21.752 48.398 22.4124 49.059 23.7557 49.671C24.7581 50.2565 25.8936 50.6134 26.6062 51.4792C26.6739 51.7594 26.7416 52.0384 26.8105 52.2672C26.8875 52.5005 27.0205 52.7111 27.1977 52.8803C27.3843 53.1133 27.6192 53.3023 27.8859 53.4341C28.1527 53.5659 28.4448 53.6372 28.7417 53.6431C30.0387 53.6934 31.1766 52.3953 30.6765 50.5104C30.1302 49.1357 29.0826 48.677 27.9234 49.2111C27.9899 49.3907 28.2797 49.8482 28.3985 50.2565C28.4887 50.4601 28.3985 50.5104 28.2168 50.3835C27.6015 49.95 26.6442 47.4041 26.4352 47.0209C26.2309 46.5646 26.0254 46.1563 25.6845 45.8234C25.4434 45.624 25.1749 45.4606 24.8876 45.3384C24.7284 45.0833 23.7497 43.5553 23.7497 43.1984C25.287 44.0501 26.9749 44.59 28.718 44.7875C28.9621 45.2804 29.2516 45.7491 29.5826 46.1874C29.9021 46.5706 30.287 46.9275 30.926 47.4616C31.7229 48.1801 32.0187 48.5046 32.47 49.4734C32.6458 49.9129 32.8834 50.3247 33.1755 50.696C33.5473 51.0725 33.821 51.5356 33.9725 52.0444C34.2457 52.9869 34.4737 53.903 34.8835 54.7688C35.8336 54.8202 36.6591 54.5652 37.5701 53.7772C37.5238 54.1065 37.4513 54.3353 37.5238 54.6933C37.5927 55.025 39.3671 54.922 40.0049 54.8203L40.5988 58.2331C42.3055 58.2331 43.5123 57.9769 44.833 56.5255C44.3769 55.6609 43.8995 54.8202 43.4434 53.9796C43.0336 53.1653 42.9683 52.5546 42.6714 51.7127C42.5396 51.3483 42.3713 50.9984 42.169 50.6685C41.9179 50.2374 41.7129 49.8813 41.5537 49.6003C41.1214 48.8626 41.0299 48.6076 40.8708 47.7154C40.7354 47.0041 40.6427 46.2892 40.5061 45.6018C40.3482 44.6606 40.1201 44.2271 39.7341 43.4379C38.8908 41.8069 38.4823 40.51 38.5036 38.5485C38.3152 36.9984 37.9722 35.4715 37.4798 33.9908C37.342 33.6088 37.1829 33.2519 37.0463 32.8963C36.8257 32.3187 36.7028 31.7078 36.6829 31.0892C37.0237 28.0308 36.5225 26.1483 35.6139 23.3713C36.6152 22.3031 39.4835 23.8814 42.8068 23.9581C43.65 23.9078 44.7416 23.727 45.1525 22.8109C44.9862 22.7909 44.8187 22.7829 44.6513 22.7869C44.2641 22.7869 44.219 22.66 44.1952 22.4037C44.1049 21.7415 47.2916 21.7415 48.5435 20.7499C48.8166 20.5703 49.0898 20.265 49.1136 20.0374C48.9761 20.0418 48.8385 20.033 48.7026 20.0111C48.2929 20.0374 47.838 19.7057 48.4746 19.4255C49.0435 19.1716 50.2051 18.9465 50.8655 18.4316C51.0472 18.2531 51.3881 17.9526 51.4593 17.6676C51.141 17.7203 50.755 17.7694 50.4355 17.7957C49.888 17.8472 49.2965 17.8735 48.7276 17.8975C45.7001 18.0005 42.5823 17.7203 39.5821 17.5909C38.1973 17.5217 36.8111 17.6938 35.4844 18.0999C34.71 18.3549 34.0045 18.6878 33.0496 19.1716C32.5246 19.4255 32.5021 19.4255 31.9343 19.271C31.5538 19.1303 31.1661 19.0104 30.7727 18.9118C29.8618 18.9118 28.6776 19.3692 27.6538 19.3189C27.1787 19.2938 27.3117 19.1668 27.3343 18.6555C27.3806 16.5694 27.5623 14.4534 27.7001 12.3662C27.7001 12.1638 27.7001 12.0357 27.9947 12.0069C28.5184 11.9806 29.0197 11.9554 29.4971 11.7758C30.0435 11.6237 30.5661 11.1399 31.0685 10.8597C32.0363 10.7565 33.0088 10.7058 33.982 10.7076C34.324 10.9364 34.4832 11.1399 34.9167 11.1651C35.4844 11.1651 35.8669 10.8058 35.9857 10.1975C36.5106 10.1472 36.9893 9.51014 36.3729 9.28141C35.8716 9.15328 34.9179 9.30656 34.621 9.20477C33.596 8.94851 34.5295 8.00727 35.0533 8.11025C35.4856 8.03481 36.0546 8.00726 36.6472 7.90548C37.3515 7.88033 37.8076 7.54622 37.2838 6.68402C36.9655 6.4038 36.8088 6.25052 36.7149 5.86852C36.532 5.28293 36.5795 4.74885 35.5533 4.51892C33.6508 4.39785 31.7565 4.16876 29.8796 3.83275C28.8771 3.67947 28.0113 3.60403 27.6027 3.57768C27.2832 3.57768 27.2832 3.70582 27.3058 3.34896C27.3283 3.22202 27.3283 3.11904 27.3521 3.01845V2.76577C27.3747 2.46041 27.4424 2.46041 27.1241 2.48556C26.9649 2.5107 26.7606 2.53825 26.51 2.5622C26.2619 2.61047 26.0113 2.64446 25.7594 2.66398C25.5549 2.6845 25.3495 2.69329 25.1441 2.69033C24.8935 2.69033 24.9161 2.66398 24.9161 2.46041V0.193525C24.9161 -0.263923 24.7795 0.21987 24.7118 0.320461C24.5642 0.532184 24.3964 0.728727 24.2106 0.90724C24.0288 1.08447 23.8459 1.26649 23.6642 1.46767C23.5137 1.56733 23.3949 1.70872 23.3221 1.87483C23.2319 2.05326 23.1404 2.1287 23.1404 2.38257C23.0231 3.01476 22.7571 3.60937 22.3648 4.11656C21.3636 5.20989 20.3623 5.20989 19.4739 6.15233C19.5202 6.3559 19.4977 6.96663 19.2459 7.52706C18.9965 8.13899 18.652 8.62159 18.2446 9.15687C17.7978 9.78894 17.303 10.3851 16.7647 10.94C16.5153 11.2202 16.311 11.5004 16.311 11.7291C16.9049 11.9327 17.0617 12.3398 16.994 12.7733C16.8704 13.2644 16.6186 13.713 16.2647 14.0726C16.0141 16.185 15.6506 18.4016 15.172 20.5643C14.672 22.7294 14.103 24.8933 13.4427 26.8536C13.3061 28.0512 13.2146 29.3002 13.1921 30.5468C13.1695 31.4892 13.1695 32.3813 13.2146 33.301C13.2339 33.8384 13.2875 34.374 13.375 34.9045L13.3761 34.9009ZM36.1424 5.59189C36.3016 6.00024 35.8918 6.22896 35.4821 6.05173C35.2329 5.9622 34.9959 5.8415 34.7766 5.69248C35.1863 5.156 36.0059 5.31048 36.1424 5.5895V5.59189ZM29.1087 4.49497C29.61 4.6734 29.7691 5.43741 28.8356 5.38592C28.6301 5.38592 28.0148 4.95362 27.9923 4.82668C28.139 4.68623 28.3168 4.58291 28.5109 4.52524C28.705 4.46757 28.9099 4.4572 29.1087 4.49497ZM24.1203 45.7204C24.7142 46.5359 24.4172 46.8915 23.6191 46.9682C22.5501 45.3635 21.3434 43.123 19.9371 41.953C19.5274 41.5938 19.2316 41.3926 19.3908 41.0609C19.5165 40.8545 19.6695 40.6663 19.8457 40.5016C20.8481 39.5592 21.9183 40.4765 22.2805 42.0021C22.5323 43.0978 23.6238 45.3132 24.1251 45.7204H24.1203ZM37.5095 51.272C37.4881 51.272 37.4656 51.2972 37.4418 51.2972C36.2814 50.4326 35.4393 49.4889 35.3039 48.4962C33.3465 47.0712 32.9154 46.2042 32.141 43.5313C31.8453 42.8188 31.2526 42.5901 30.7526 42.3338C30.2288 42.0788 29.7964 41.8237 29.8641 41.0357C29.9556 40.5759 30.1373 40.2442 30.4117 39.8382C32.141 37.4959 32.3904 40.3172 33.9392 41.85C36.4204 43.8355 35.5545 45.9491 37.0344 48.3944C37.4216 49.4877 37.5582 50.0218 37.5095 51.2684V51.272ZM41.9041 53.0767C41.9955 53.3066 42.0621 53.5341 41.9955 53.7389C41.859 54.1221 41.1297 54.5281 40.3779 54.6813C40.2187 53.3317 40.151 52.3893 40.0144 51.4481C39.7175 51.4217 39.4906 51.5762 39.3766 51.4481C39.3327 50.9391 39.4229 50.0997 39.7424 49.9452C40.1961 49.7416 41.7212 52.6192 41.9041 53.0779V53.0767ZM37.1853 39.5101C37.3444 40.019 37.1413 40.607 37.304 41.0669C37.5546 41.7303 37.7791 42.2883 38.0321 42.8763C38.2388 43.3553 38.3742 43.8678 38.6937 44.5313C38.8742 44.9372 39.1937 44.9887 39.3529 45.3695C39.5165 45.9349 39.6236 46.5154 39.6724 47.1023C39.6043 47.3137 39.4874 47.5057 39.3315 47.6627C39.1937 47.713 39.0108 47.6627 38.7839 47.6891C38.3742 47.2292 38.101 46.7191 37.8278 46.1599C37.6461 45.6509 37.873 45.2701 37.7376 44.8103C37.4181 43.7924 36.8491 42.7482 36.3028 41.8812C36.0586 41.6758 35.7814 41.5138 35.4833 41.4022C34.7777 40.5112 34.1411 38.9317 34.0722 38.1162C34.1602 37.9357 34.2918 37.7804 34.4549 37.6646C34.6181 37.5489 34.8075 37.4764 35.0058 37.454C35.4381 37.5821 36.4857 38.3449 37.19 39.5173L37.1853 39.5101ZM27.2618 20.5643C27.3058 20.2051 27.3058 20.2853 27.6027 20.259C28.2405 20.2075 29.0137 20.4123 29.6967 20.6422C30.3345 20.8194 30.8583 21.0493 31.1991 21.1212C31.3583 21.1727 31.4046 21.1978 31.4046 20.9691V20.8158C31.4046 20.7404 31.382 20.6889 31.382 20.6386C31.3583 20.4601 31.4272 20.4602 31.5638 20.4853C31.7419 20.4941 31.9178 20.5284 32.0864 20.5871C34.773 21.6565 36.0249 29.2966 34.4547 31.561C33.9135 31.7258 33.388 31.939 32.8845 32.1981C32.8669 32.392 32.9061 32.5869 32.9973 32.7586C33.2764 32.7752 33.5484 32.8533 33.7943 32.9873C34.0437 33.1921 34.6138 34.2111 34.7445 35.0506C34.7896 35.3823 34.1506 35.5607 33.5568 35.6122C33.033 35.4062 32.8037 35.0242 32.5318 34.6937C32.2812 34.3632 31.9854 34.083 31.3939 34.0567C30.983 34.1596 30.5958 34.2363 30.414 34.1596C30.358 34.0429 30.3329 33.9135 30.341 33.7841C30.3491 33.6546 30.3902 33.5295 30.4604 33.4208C30.6948 33.231 30.9552 33.0765 31.2336 32.9621C31.4391 32.8603 31.4391 32.9621 31.4165 32.6819C31.1884 30.4677 30.0494 28.9696 28.8035 27.438C28.3284 26.8501 27.7785 25.9855 27.6882 25.6789C27.3224 24.0024 27.0267 22.3175 27.2559 20.5607L27.2618 20.5643ZM29.1444 30.1408C29.6005 31.1084 29.7382 31.4904 29.8048 31.9742C29.8104 32.0859 29.8255 32.1968 29.8499 32.3059C29.2095 32.9399 28.6584 33.6595 28.212 34.4446C27.6882 35.9715 27.6181 35.7164 26.4126 35.9475C26.1394 35.617 26.0254 35.4374 26.0717 35.0051C27.2595 34.6219 27.2773 33.8842 27.2595 33.1454C26.9851 32.1526 26.4387 31.8209 25.7332 31.4401C25.6145 31.185 25.3686 30.6246 25.4149 30.1408C25.4939 29.9941 25.6009 29.8646 25.7297 29.7598C25.8585 29.655 26.0067 29.5769 26.1656 29.5301C27.0765 29.4522 28.4424 29.6319 29.1479 30.1408H29.1444ZM24.6655 10.9651C24.8709 10.7615 24.5289 10.6334 25.0075 10.5831C25.7807 10.8633 26.0314 11.2441 26.2368 11.7291C26.3108 11.8778 26.3533 12.0405 26.3614 12.2067C26.3696 12.3729 26.3434 12.5389 26.2843 12.6943C25.9648 13.8152 25.7831 14.8846 25.5788 15.9527C25.3508 17.2784 25.1465 18.7537 24.985 20.0793C24.8721 20.8697 24.8044 21.5822 24.7593 22.1917C24.718 22.5472 24.695 22.9045 24.6904 23.2623C24.6215 23.9233 24.5716 24.764 24.3258 23.4384C24.207 23.0324 24.1892 22.4983 24.1666 21.9379C23.8934 18.7298 24.5764 13.5098 24.6667 10.9627L24.6655 10.9651ZM17.1305 32.0999C17.3183 31.9412 17.5365 31.8232 17.7715 31.7534C18.0065 31.6835 18.2533 31.6633 18.4964 31.694C19.1794 32.2544 20.2946 33.2208 21.2282 34.0602C21.1819 35.2578 21.9551 35.4625 22.5929 35.3859C23.4813 35.8433 24.5954 36.3523 25.1429 36.5834C25.7368 36.8385 25.5076 37.5761 24.2771 37.6791C23.9136 37.551 22.4563 37.1175 22.0014 37.0157C21.3873 36.9151 20.9776 37.0923 20.3386 37.042C19.4965 36.6349 19.0855 36.3798 18.0166 35.5895C17.994 35.7427 17.083 32.9418 17.1282 32.1011L17.1305 32.0999ZM29.4389 68.2072L27.1086 62.2807H23.0133V73.9911H24.4208V66.9486L27.3901 73.9911H28.7215L31.8191 66.9486V73.9911H36.0427V62.2807H32.1766L29.4389 68.2072ZM16.6388 62.2807L11.5447 73.9911H13.0555L13.6707 72.5314H17.7921L18.3539 73.9911H22.8399L18.386 62.2807H16.6388ZM14.2337 71.0393L15.8193 67.3462L17.304 71.0393H14.2337ZM41.0596 62.2807L36.0926 73.9911H37.5261L38.1616 72.5026H42.1559L42.7177 73.9911H47.0196L42.6167 62.2807H41.0596ZM38.7554 71.0393L40.2389 67.4611L41.5715 71.0393H38.7554ZM47.0861 62.3502V64.2662L49.9901 64.241L47.0861 74.0067H55.709V72.3015H52.9867L55.8753 62.3502H47.0861ZM0 60.0713H56V58.2415H0V60.0713ZM11.648 62.2807H9.41865L4.43021 66.3175V62.2807H0.179346V73.9911H4.37795V68.4072L4.68438 68.2359L6.96244 73.9911H11.4378L8.11216 65.3451L11.648 62.2807Z" fill="white"/>
</svg>
