<svg width="30" height="28" viewBox="0 0 30 28" fill="none" xmlns="http://www.w3.org/2000/svg">
<path d="M16.3324 19.6906L18.9511 18.1786L20.2844 20.488L17.6657 22L20.2844 23.512L18.9511 25.8213L16.3324 24.3093V27.3333H13.6657V24.3093L11.0471 25.8213L9.71374 23.512L12.3324 22L9.71374 20.488L11.0471 18.1786L13.6657 19.6906V16.6666H16.3324V19.6906ZM21.6657 22V19.3333H22.3324C23.1018 19.3332 23.8592 19.1429 24.5372 18.7793C25.2153 18.4156 25.7929 17.89 26.2187 17.2492C26.6445 16.6084 26.9052 15.8722 26.9777 15.1062C27.0501 14.3403 26.9321 13.5683 26.6341 12.8589C26.336 12.1496 25.8672 11.525 25.2694 11.0407C24.6716 10.5563 23.9634 10.2273 23.2076 10.0829C22.4519 9.93851 21.6722 9.98319 20.938 10.213C20.2037 10.4428 19.5376 10.8505 18.9991 11.4V11.3333C18.9985 9.86678 18.5949 8.42861 17.8323 7.17596C17.0696 5.92332 15.9773 4.90442 14.6748 4.2306C13.3722 3.55678 11.9095 3.25398 10.4464 3.35529C8.98341 3.45659 7.57637 3.95811 6.3791 4.80503C5.18183 5.65195 4.2404 6.81168 3.65769 8.15748C3.07498 9.50328 2.87342 10.9834 3.07503 12.436C3.27664 13.8886 3.87367 15.2578 4.80086 16.3941C5.72806 17.5303 6.94974 18.3898 8.33241 18.8786V21.664C6.56402 21.2064 4.94277 20.3023 3.624 19.0384C2.30524 17.7745 1.33313 16.1932 0.800837 14.4458C0.268542 12.6984 0.193889 10.8437 0.584033 9.05919C0.974176 7.27471 1.81604 5.62032 3.02897 4.25452C4.2419 2.88873 5.78524 1.8573 7.51113 1.25906C9.23702 0.660826 11.0876 0.515825 12.8856 0.837952C14.6836 1.16008 16.3688 1.93854 17.7796 3.09875C19.1905 4.25896 20.2798 5.76204 20.9431 7.46398C21.9458 7.27212 22.9775 7.29175 23.9722 7.5216C24.9669 7.75145 25.9027 8.18646 26.7196 8.79879C27.5365 9.41111 28.2165 10.1873 28.7162 11.0775C29.2159 11.9678 29.5241 12.9526 29.6213 13.9689C29.7184 14.9852 29.6023 16.0106 29.2803 16.9794C28.9583 17.9482 28.4376 18.8391 27.7515 19.5951C27.0654 20.3511 26.229 20.9555 25.2958 21.3696C24.3627 21.7837 23.3533 21.9984 22.3324 22L21.6657 22.0013V22Z" fill="#0F3599"/>
</svg>
