<svg width="264" height="220" viewBox="0 0 264 220" fill="none" xmlns="http://www.w3.org/2000/svg">
<path d="M248.338 150.832V116.694L319.514 183.855H281.36L248.338 150.832ZM178.723 112.678V160.203L233.834 129.189L233.611 157.08L275.336 199.027H357.892L249.453 96.1667L248.114 95.051L234.281 81.8867V81.6636L178.723 112.678ZM109.331 116.471V150.609L76.3086 183.631H38.1543L109.331 116.471ZM123.611 81.2173L109.777 94.3816L108.439 95.4973L0 198.581H82.5561L124.28 156.633L124.057 128.966L178.723 160.203V112.678L123.611 81.2173ZM201.258 18.7424L178.723 5.80122L155.741 19.1887L122.718 0L115.132 13.1643L141.238 28.3368V71.1767L178.723 92.8198L216.208 71.1767V27.8906L241.421 13.3875L233.834 0.223104L201.258 18.7424Z" fill="#00247F"/>
<path d="M178.276 180.061V220L216.208 198.357V159.31L178.276 180.061ZM140.568 198.357L178.276 220V180.061L140.568 158.418V198.357Z" fill="#00247F"/>
</svg>
