<svg width="12" height="9" viewBox="0 0 12 9" fill="none" xmlns="http://www.w3.org/2000/svg">
<rect width="12" height="1" fill="#0F3599"/>
<rect y="4" width="12" height="1" fill="#0F3599"/>
<rect y="8" width="12" height="1" fill="#0F3599"/>
</svg>
