<svg width="80" height="80" viewBox="0 0 80 80" fill="none" xmlns="http://www.w3.org/2000/svg">
<circle opacity="0.4" cx="40" cy="40" r="39.5" stroke="white"/>
<path d="M32 50C32 47.8783 32.8429 45.8434 34.3431 44.3431C35.8434 42.8429 37.8783 42 40 42C42.1217 42 44.1566 42.8429 45.6569 44.3431C47.1571 45.8434 48 47.8783 48 50H46C46 48.4087 45.3679 46.8826 44.2426 45.7574C43.1174 44.6321 41.5913 44 40 44C38.4087 44 36.8826 44.6321 35.7574 45.7574C34.6321 46.8826 34 48.4087 34 50H32ZM40 41C36.685 41 34 38.315 34 35C34 31.685 36.685 29 40 29C43.315 29 46 31.685 46 35C46 38.315 43.315 41 40 41ZM40 39C42.21 39 44 37.21 44 35C44 32.79 42.21 31 40 31C37.79 31 36 32.79 36 35C36 37.21 37.79 39 40 39Z" fill="white"/>
</svg>
