<svg width="21" height="20" viewBox="0 0 21 20" fill="none" xmlns="http://www.w3.org/2000/svg">
<path d="M20.7 9.74272C20.7 15.1231 16.3043 19.4848 10.8809 19.4848C9.15986 19.4848 7.54314 19.0446 6.13576 18.2737L0.699951 20L2.47189 14.7716C1.57842 13.3042 1.06386 11.5812 1.06386 9.74207C1.06451 4.36169 5.45881 0 10.8822 0C16.305 0.00130433 20.7 4.36234 20.7 9.74272ZM10.8803 1.55346C6.3288 1.55346 2.62645 5.22777 2.62645 9.74468C2.62645 11.5368 3.21079 13.1959 4.19883 14.5459L3.1684 17.587L6.33924 16.5794C7.64357 17.435 9.20421 17.9333 10.8803 17.9333C15.4317 17.9333 19.1354 14.2596 19.1354 9.74272C19.1367 5.22777 15.4324 1.55346 10.8803 1.55346ZM15.8394 11.9868C15.778 11.8883 15.6176 11.8283 15.3776 11.7084C15.1383 11.5884 13.9533 11.0112 13.7335 10.9329C13.5118 10.8527 13.3513 10.8123 13.1909 11.0516C13.0324 11.291 12.5707 11.8284 12.4292 11.9888C12.289 12.1486 12.1487 12.1688 11.9081 12.0507C11.6674 11.9294 10.8914 11.679 9.97181 10.8658C9.25638 10.2318 8.77312 9.4512 8.63356 9.21186C8.49204 8.97316 8.61921 8.84403 8.73856 8.72534C8.84617 8.61773 8.97921 8.44621 9.09986 8.306C9.22051 8.16709 9.26029 8.06861 9.34051 7.90883C9.41942 7.74905 9.37964 7.61014 9.32029 7.48948C9.26029 7.36949 8.77965 6.19559 8.57813 5.71755C8.37791 5.24016 8.1777 5.31907 8.03683 5.31907C7.89661 5.31907 7.73618 5.29951 7.57575 5.29951C7.41531 5.29951 7.15445 5.35755 6.93467 5.5969C6.71489 5.83624 6.09272 6.41341 6.09272 7.58861C6.09272 8.76512 6.95423 9.89924 7.07488 10.0584C7.19618 10.2168 8.74052 12.7075 11.1868 13.6635C13.6344 14.619 13.6344 14.3001 14.0752 14.2596C14.5174 14.2192 15.4996 13.6825 15.6991 13.1255C15.9 12.566 15.9 12.0866 15.8394 11.9868Z" fill="white"/>
</svg>
